<?xml version="1.0" encoding="utf-8"?>
<!-- Generator: Adobe Illustrator 19.0.0, SVG Export Plug-In . SVG Version: 6.00 Build 0)  -->
<svg version="1.1" id="Camada_1" xmlns="http://www.w3.org/2000/svg" xmlns:xlink="http://www.w3.org/1999/xlink" x="0px" y="0px"
	 viewBox="0 0 612 792" style="enable-background:new 0 0 612 792;" xml:space="preserve">
<style type="text/css">
	.st0{fill:#FF1515;}
</style>
<path class="st0" d="M315.2,401.6l-4.4-4.4c0.4-0.8,0.7-1.6,0.7-2.5c0-2.9-2.3-5.2-5.2-5.2c-2.9,0-5.2,2.3-5.2,5.2
	c0,2.9,2.3,5.2,5.2,5.2c1,0,1.9-0.3,2.7-0.7l4.4,4.4c0.5,0.5,1.4,0.5,1.9,0C315.7,403,315.7,402.1,315.2,401.6z M306.2,398.7
	c-2.2,0-4-1.8-4-4c0-2.2,1.8-4,4-4c2.2,0,4,1.8,4,4C310.3,396.9,308.5,398.7,306.2,398.7z"/>
</svg>
